#	generated from ===> Altmark_input.xlsm <===														
#	---------	INVESTMENTS	--------												
															
!	type	name	cost	life	labSub	landSub	capacity	maintenance	prodGroup	techChange	avDeprec	borrowedCapCosts	avAnnualCosts	avBoundEquity	equityShare
															
	2	Sauen1	3041500	20	0	0	1580	45623	1	0	45623	185620	276866	508997	912450
	2	Sauen2	1548000	20	-80	0	800	23220	1	0	23220	94473	140913	259059	464400
	2	Sauen3	1310400	20	-201.6	0	672	19656	1	0	19656	79973	119285	219296	393120
	2	Sauen4	660240	20	-168	0	336	9904	1	0	9904	40294	60102	110492	198072
	2	Sauen5	538776	20	-176.4	0	252	8082	1	0	8082	32881	49045	90165	161632.8
	2	Sauen6	380800	20	-170	0	170	5712	1	0	5712	23240	34664	63727	114240
	2	Sauen7	299776	20	-320	0	128	4496.64	1	0	4497	18295	27288	50168	89932.8
	2	Sauen8	162944	20	-294.4	0	64	2444	1	0	2444	9944	14833	27269	48883.2
	2	Sauen9	105920	20	-268	0	40	1589	1	0	1589	6464	9642	17726	31776
	3	Mastschweine1	4363200	20	0	0	10800	65448	2	0	65448	266283	397179	730185	1308960
	3	Mastschweine2	2214000	20	-108	0	5400	33210	2	0	33210	135119	201539	370515	664200
	3	Mastschweine3	840000	20	-160	0	2000	12600	2	0	12600	51265	76465	140575	252000
	3	Mastschweine4	437000	20	-160	0	1000	6555	2	0	6555	26670	39780	73132	131100
	3	Mastschweine5	264600	20	-138	0	600	3969	2	0	3969	16148	24086	44281	79380
	3	Mastschweine6	205600	20	-124	0	400	3084	2	0	3084	12548	18716	34407	61680
	3	Mastschweine7	124800	20	-122	0	200	1872	2	0	1872	7616	11360	20885	37440
	3	Mastschweine8	68600	20	-121	0	100	1029	2	0	1029	4187	6245	11480	20580
	4	Bullenmast1	1050000	24	0	0	500	10500	3	0	13125	58564	82189	176470	315000
	4	Bullenmast2	430000	24	-210	0	200	4300	3	0	5375	23983	33658	72269	129000
	4	Bullenmast3	240000	24	-425	0	100	2400	3	0	3000	13386	18786	40336	72000
	4	Bullenmast4	104000	24	-298	0	40	1040	3	0	1300	5801	8141	17479	31200
	5	Mutterkuh1	216400	24	0	0	100	2164	4	0	2705	12070	16939	36370	64920
	5	Mutterkuh2	138400	24	-96	0	40	1384	4	0	1730	7719	10833	23260	41520
	5	Mutterkuh3	54000	24	-30	0	10	540	4	0	675	3012	4227	9076	16200
	6	Milchkuh1	2054400	24	0	0	480	41088	5	0	25680	114585	181353	345276	616320
	6	Milchkuh2	1123200	24	-552	0	240	22464	5	0	14040	62647	99151	188772	336960
	6	Milchkuh3	594000	24	-816	0	120	11880	5	0	7425	33131	52436	99831	178200
	6	Milchkuh4	353536	24	-540	0	60	7070.72	5	0	4419	19719	31208	59418	106060.8
	6	Milchkuh5	257280	24	-384	0	30	5145.6	5	0	3216	14350	22711	43240	77184
	7	Melkstand_1	96000	12	0	0	480	2750	0	0	2400	8015	13165	16166	28800
	7	Melkstand_2	64080	12	-280	0	240	2750	0	0	1602	5350	9702	10791	19224
	7	Melkstand_3	54000	12	-440	0	120	1875	0	0	1350	4509	7734	9093	16200
	7	Melkstand_4	33240	12	-680	0	60	1188	0	0	831	2775	4794	5597	9972
	7	Melkstand_5	12480	12	-440	0	30	650	0	0	312	1042	2004	2102	3744
	7	Roboter1	539000	8	2170	0	480	9293	0	0	20213	60759	90264	93057	161700
	7	Roboter2	317000	8	962	0	240	5466	0	0	11888	35734	53087	54729	95100
	7	Roboter3	172500	8	299	0	120	2974	0	0	6469	19445	28888	29782	51750
	7	Roboter4	107280	8	-40	0	60	1850	0	0	4023	12093	17966	18522	32184
	8	Aufzuchtstall1	27680	24	-80	0	20	276.8	6	0	346	1544	2167	4652	8304
	8	Aufzuchtstall2	58850	24	-150	0	50	588.5	6	0	736	3282	4607	9891	17655
	8	Aufzuchtstall3	99900	24	-200	0	100	999	6	0	1249	5572	7820	16790	29970
	8	Aufzuchtstall4	172400	24	-200	0	200	1724	6	0	2155	9616	13495	28975	51720
	8	Aufzuchtstall5	249600	24	0	0	300	2496	6	0	3120	13922	19538	41949	74880
	9	Biogas150	850000	20	0	0	150	17000	7	0	12750	51875	81625	142248	255000
	10	Biogas450	1825000	20	0	0	450	36500	8	0	27375	111378	175253	305415	547500
	11	Biogas800	2650000	20	0	0	800	53000	9	0	39750	161727	254477	443480	795000
	12	Maschine1	700000	12	1000	0	1000	28000	0	0	17500	58446	103946	117876	210000
	12	Maschine2	400000	12	0	0	500	16000	0	0	10000	33398	59398	67358	120000
	12	Maschine3	200000	12	-300	0	200	8000	0	0	5000	16699	29699	33679	60000
	12	Maschine4	120000	12	-364	0	100	4800	0	0	3000	10019	17819	20207	36000
	12	Maschine5	70000	12	-333	0	50	2800	0	0	1750	5845	10395	11788	21000
	12	Maschine6	48000	12	-200	0	30	1920	0	0	1200	4008	7128	8083	14400
	12	Maschine7	33000	12	-100	0	15	1320	0	0	825	2755	4900	5557	9900
	0	Lohnarbeitskraft	10560	1	960	0	0	0	-1	-1			10560		
	1	Arbeit_ausserhalb	-6720	1	-960	0	0	0	-1	-1			-6720		
